…
ℹ Use `spec()` to retrieve the full column specification for this data.
ℹ Specify the column types or set `show_col_types = FALSE` to quiet this message.
```


:::

```{.r .cell-code}
meth
```

::: {.cell-output .cell-output-stdout}

```
# A tibble: 599 × 6
     age gender grade      amas rcmas arith
   <dbl> <chr>  <chr>     <dbl> <dbl> <dbl>
 1  1378 Boy    Secondary     9    20     6
 2  1407 Boy    Secondary    18     8     6
 3  1379 Girl   Secondary    23    26     5
 4  1428 Girl   Secondary    19    18     7
 5  1356 Boy    Secondary    23    20     1
 6  1350 Girl   Secondary    27    33     1
 7  1336 Boy    Secondary    22    23     4
 8  1393 Boy    Secondary    17    11     7
 9  1317 Girl   Secondary    28    32     2
10  1348 Boy    Secondary    20    30     6
# ℹ 589 more rows
```
…
::: {.cell}

```{.r .cell-code}
meth_modified
```

::: {.cell-output .cell-output-stdout}

```
# A tibble: 599 × 7
   gender grade       age  amas rcmas arith age_group
   <fct>  <fct>     <dbl> <dbl> <dbl> <fct> <fct>    
 1 Boy    Secondary  1378     9    20 6     <NA>     
 2 Boy    Secondary  1407    18     8 6     <NA>     
 3 Girl   Secondary  1379    23    26 5     <NA>     
 4 Girl   Secondary  1428    19    18 7     <NA>     
 5 Boy    Secondary  1356    23    20 1     <NA>     
 6 Girl   Secondary  1350    27    33 1     <NA>     
 7 Boy    Secondary  1336    22    23 4     <NA>     
 8 Boy    Secondary  1393    17    11 7     <NA>     
 9 Girl   Secondary  1317    28    32 2     <NA>     
10 Boy    Secondary  1348    20    30 6     <NA>     
# ℹ 589 more rows
```
…
