messy – Swetha_Blog
…
Rows: 344 Columns: 8
── Column specification ────────────────────────────────────────────────────────
Delimiter: ";"
chr (3): species, island, sex
dbl (3): flipper_len, body_mass, year
num (2): bill_len, bill_dep

ℹ Use `spec()` to retrieve the full column specification for this data.
ℹ Specify the column types or set `show_col_types = FALSE` to quiet this message.

MessyPenguins %>% 

janitor::clean_names(case = "snake")

# A tibble: 344 × 8
   species island      bill_len bill_dep flipper_len body_mass sex     year
   <chr>   <chr>          <dbl>    <dbl>       <dbl>     <dbl> <chr>  <dbl>
 1 Adelie  " "              391      187         181      3750 male    2007
 2 Adelie  "Torgersen"      395      174         186      3800 female  2007
 3 Adelie  "Torgersen"      403      180         195      3250 female  2007
 4 Adelie  "Torgersen"       NA       NA          NA        NA <NA>    2007
 5 Adelie  "Torgersen"     9990       NA         193      3450 female  2007
 6 Adelie  "Torgersen"      393      206         190      3650 male    2007
 7 Adelie  "Torgersen"      389      178         181      3625 female  2007
 8 Adelie  " "              392      196         195      4675 male    2007
 9 Adelie  "Torgersen"      341      181         193      3475 <NA>    2007
10 Adelie  "Torgersen"      420      202         190      4250 <NA>    2007
# ℹ 334 more rows
…
