Fertility_final – Swetha_Blog
…
Fertility <- readr::read_csv("Fertility.csv") %>% 
janitor::clean_names(case="snake")

Rows: 254654 Columns: 9
── Column specification ────────────────────────────────────────────────────────
Delimiter: ","
chr (6): morekids, gender1, gender2, afam, hispanic, other
dbl (3): rownames, age, work

ℹ Use `spec()` to retrieve the full column specification for this data.
ℹ Specify the column types or set `show_col_types = FALSE` to quiet this message.

Fertility

# A tibble: 254,654 × 9
   rownames morekids gender1 gender2   age afam  hispanic other  work
      <dbl> <chr>    <chr>   <chr>   <dbl> <chr> <chr>    <chr> <dbl>
 1        1 no       male    female     27 no    no       no        0
 2        2 no       female  male       30 no    no       no       30
 3        3 no       male    female     27 no    no       no        0
 4        4 no       male    female     35 yes   no       no        0
 5        5 no       female  female     30 no    no       no       22
 6        6 no       male    female     26 no    no       no       40
 7        7 no       female  male       29 no    no       no        0
 8        8 no       male    male       33 no    no       no       52
 9        9 no       female  male       29 no    no       no        0
10       10 no       male    female     27 no    no       no        0
# ℹ 254,644 more rows
…
New column for labeling ethnicity

We created a new column for ethnicity since the data set did not directly indicate whether a person was Caucasian. Based on the data dictionary, all “no” responses were Caucasian. To make the data easier to understand, we added a column to clearly show the ethnicity of a person.

Fertility %>% filter(afam == "no", hispanic == "no", other == "no")

# A tibble: 216,033 × 9
   rownames morekids gender1 gender2   age afam  hispanic other  work
      <dbl> <chr>    <chr>   <chr>   <dbl> <chr> <chr>    <chr> <dbl>
 1        1 no       male    female     27 no    no       no        0
 2        2 no       female  male       30 no    no       no       30
 3        3 no       male    female     27 no    no       no        0
 4        5 no       female  female     30 no    no       no       22
 5        6 no       male    female     26 no    no       no       40
 6        7 no       female  male       29 no    no       no        0
 7        8 no       male    male       33 no    no       no       52
 8        9 no       female  male       29 no    no       no        0
 9       10 no       male    female     27 no    no       no        0
10       11 yes      male    male       28 no    no       no        0
# ℹ 216,023 more rows

Fertility_ethnicity <- Fertility %>%
  mutate(ethnicity = case_when(
    afam == "yes" ~ "African-American",
    hispanic == "yes" ~ "Hispanic",
    other == "yes" ~ "Other",
    afam == "no" & hispanic == "no" & other == "no" ~ "Caucasian"
  ))

Fertility_ethnicity

# A tibble: 254,654 × 10
   rownames morekids gender1 gender2   age afam  hispanic other  work ethnicity 
      <dbl> <chr>    <chr>   <chr>   <dbl> <chr> <chr>    <chr> <dbl> <chr>     
 1        1 no       male    female     27 no    no       no        0 Caucasian 
 2        2 no       female  male       30 no    no       no       30 Caucasian 
 3        3 no       male    female     27 no    no       no        0 Caucasian 
 4        4 no       male    female     35 yes   no       no        0 African-A…
 5        5 no       female  female     30 no    no       no       22 Caucasian 
 6        6 no       male    female     26 no    no       no       40 Caucasian 
 7        7 no       female  male       29 no    no       no        0 Caucasian 
 8        8 no       male    male       33 no    no       no       52 Caucasian 
 9        9 no       female  male       29 no    no       no        0 Caucasian 
10       10 no       male    female     27 no    no       no        0 Caucasian 
# ℹ 254,644 more rows
…
