horrormovies – Swetha_Blog
…
Rows: 50 Columns: 12
── Column specification ────────────────────────────────────────────────────────
Delimiter: ","
chr (3): Movie, This film is a sequel., This film has at least one sequel
dbl (9): Ranking, Avg resting heart rate (BPM), Avg movie heart rate (BPM), ...

ℹ Use `spec()` to retrieve the full column specification for this data.
ℹ Specify the column types or set `show_col_types = FALSE` to quiet this message.

HorrorMoviesdata %>% 

janitor::clean_names(case = "snake")

# A tibble: 50 × 12
   ranking movie                   avg_resting_heart_ra…¹ avg_movie_heart_rate…²
     <dbl> <chr>                                    <dbl>                  <dbl>
 1       1 Sinister                                    64                     86
 2       2 Host                                        64                     88
 3       3 Skinamirink                                 64                     84
 4       4 Insidious                                   64                     85
 5       5 The Conjuring                               64                     84
 6       6 Hereditary                                  64                     82
 7       7 Smile                                       64                     83
 8       8 The Excorcism of Emily…                     64                     82
 9       9 Hell House LLC                              64                     81
10      10 Talk To Me                                  64                     79
# ℹ 40 more rows
# ℹ abbreviated names: ¹​avg_resting_heart_rate_bpm, ²​avg_movie_heart_rate_bpm
# ℹ 8 more variables: overall_difference_bpm <dbl>,
#   hrv_difference_percent <dbl>, highest_spike_bpm <dbl>, scare_score <dbl>,
#   this_film_is_a_sequel <chr>, this_film_has_at_least_one_sequel <chr>,
#   rotten_tomato_score <dbl>, year <dbl>
…
Horrormoviesdata_modified <- HorrorMoviesdata %>% tidyr::drop_na()

Horrormoviesdata_modified

# A tibble: 50 × 12
   Ranking Movie                   Avg resting heart ra…¹ Avg movie heart rate…²
     <dbl> <chr>                                    <dbl>                  <dbl>
 1       1 Sinister                                    64                     86
 2       2 Host                                        64                     88
 3       3 Skinamirink                                 64                     84
 4       4 Insidious                                   64                     85
 5       5 The Conjuring                               64                     84
 6       6 Hereditary                                  64                     82
 7       7 Smile                                       64                     83
 8       8 The Excorcism of Emily…                     64                     82
 9       9 Hell House LLC                              64                     81
10      10 Talk To Me                                  64                     79
# ℹ 40 more rows
# ℹ abbreviated names: ¹​`Avg resting heart rate (BPM)`,
#   ²​`Avg movie heart rate (BPM)`
# ℹ 8 more variables: `Overall difference (BPM)` <dbl>,
#   `HRV Difference (%)` <dbl>, `Highest spike (BPM)` <dbl>,
#   `Scare Score` <dbl>, `This film is a sequel.` <chr>,
#   `This film has at least one sequel` <chr>, `Rotten Tomato score` <dbl>, …
…
