Classwork 3 – Swetha_Blog
…
# A tibble: 8 × 2
  clarity     n
  <ord>   <int>
1 I1        741
2 SI2      9194
3 SI1     13065
4 VS2     12258
5 VS1      8171
6 VVS2     5066
7 VVS1     3655
8 IF       1790

diamonds

# A tibble: 53,940 × 10
   carat cut       color clarity depth table price     x     y     z
   <dbl> <ord>     <ord> <ord>   <dbl> <dbl> <int> <dbl> <dbl> <dbl>
 1  0.23 Ideal     E     SI2      61.5    55   326  3.95  3.98  2.43
 2  0.21 Premium   E     SI1      59.8    61   326  3.89  3.84  2.31
 3  0.23 Good      E     VS1      56.9    65   327  4.05  4.07  2.31
 4  0.29 Premium   I     VS2      62.4    58   334  4.2   4.23  2.63
 5  0.31 Good      J     SI2      63.3    58   335  4.34  4.35  2.75
 6  0.24 Very Good J     VVS2     62.8    57   336  3.94  3.96  2.48
 7  0.24 Very Good I     VVS1     62.3    57   336  3.95  3.98  2.47
 8  0.26 Very Good H     SI1      61.9    55   337  4.07  4.11  2.53
 9  0.22 Fair      E     VS2      65.1    61   337  3.87  3.78  2.49
10  0.23 Very Good H     VS1      59.4    61   338  4     4.05  2.39
# ℹ 53,930 more rows
…
ℹ Use `spec()` to retrieve the full column specification for this data.
ℹ Specify the column types or set `show_col_types = FALSE` to quiet this message.

taxi_modified <- taxi %>%
  naniar::replace_with_na_all(condition = ~ .x %in% common_na_strings) %>%
  naniar::replace_with_na_all(condition = ~ .x %in% common_na_numbers) %>%
  janitor::clean_names(case = "snake") %>%
  janitor::remove_empty()

value for "which" not specified, defaulting to c("rows", "cols")

taxi_modified

# A tibble: 10,000 × 8
   rownames tip   distance company                      local dow   month  hour
      <dbl> <chr>    <dbl> <chr>                        <chr> <chr> <chr> <dbl>
 1        1 yes      17.2  Chicago Independents         no    Thu   Feb      16
 2        2 yes       0.88 City Service                 yes   Thu   Mar       8
 3        3 yes      18.1  other                        no    Mon   Feb      18
 4        4 yes      20.7  Chicago Independents         no    Mon   Apr       8
 5        5 yes      12.2  Chicago Independents         no    Sun   Mar      21
 6        6 yes       0.94 Sun Taxi                     yes   Sat   Apr      23
 7        7 yes      17.5  Flash Cab                    no    Fri   Mar      12
 8        8 yes      17.7  other                        no    Sun   Jan       6
 9        9 yes       1.85 Taxicab Insurance Agency Llc no    Fri   Apr      12
10       10 yes       1.47 City Service                 no    Tue   Mar      14
# ℹ 9,990 more rows
…
