Classwork2 – Swetha_Blog
…
removing missing data

fastfood_modified <- fastfood %>% tidyr::drop_na() 

fastfood_modified

# A tibble: 301 × 18
   rownames restaurant item         calories cal_fat total_fat sat_fat trans_fat
      <dbl> <chr>      <chr>           <dbl>   <dbl>     <dbl>   <dbl>     <dbl>
 1        1 Mcdonalds  Artisan Gri…      380      60         7       2       0  
 2        2 Mcdonalds  Single Baco…      840     410        45      17       1.5
 3        3 Mcdonalds  Double Baco…     1130     600        67      27       3  
 4        4 Mcdonalds  Grilled Bac…      750     280        31      10       0.5
 5        5 Mcdonalds  Crispy Baco…      920     410        45      12       0.5
 6        6 Mcdonalds  Big Mac           540     250        28      10       1  
 7        7 Mcdonalds  Cheeseburger      300     100        12       5       0.5
 8        8 Mcdonalds  Classic Chi…      510     210        24       4       0  
 9        9 Mcdonalds  Double Chee…      430     190        21      11       1  
10       10 Mcdonalds  Double Quar…      770     400        45      21       2.5
# ℹ 291 more rows
# ℹ 10 more variables: cholesterol <dbl>, sodium <dbl>, total_carb <dbl>,
#   fiber <dbl>, sugar <dbl>, protein <dbl>, vit_a <dbl>, vit_c <dbl>,
#   calcium <dbl>, salad <chr>
…
## remove columns entirely 
fastfood_modified2 <- fastfood %>% 
  dplyr::select(-c(vit_a))
fastfood_modified2

# A tibble: 515 × 17
   rownames restaurant item         calories cal_fat total_fat sat_fat trans_fat
      <dbl> <chr>      <chr>           <dbl>   <dbl>     <dbl>   <dbl>     <dbl>
 1        1 Mcdonalds  Artisan Gri…      380      60         7       2       0  
 2        2 Mcdonalds  Single Baco…      840     410        45      17       1.5
 3        3 Mcdonalds  Double Baco…     1130     600        67      27       3  
 4        4 Mcdonalds  Grilled Bac…      750     280        31      10       0.5
 5        5 Mcdonalds  Crispy Baco…      920     410        45      12       0.5
 6        6 Mcdonalds  Big Mac           540     250        28      10       1  
 7        7 Mcdonalds  Cheeseburger      300     100        12       5       0.5
 8        8 Mcdonalds  Classic Chi…      510     210        24       4       0  
 9        9 Mcdonalds  Double Chee…      430     190        21      11       1  
10       10 Mcdonalds  Double Quar…      770     400        45      21       2.5
# ℹ 505 more rows
# ℹ 9 more variables: cholesterol <dbl>, sodium <dbl>, total_carb <dbl>,
#   fiber <dbl>, sugar <dbl>, protein <dbl>, vit_c <dbl>, calcium <dbl>,
#   salad <chr>

## remove columns entirely 
fastfood_modified3 <- fastfood %>% 
  dplyr::select(-c(vit_a, vit_c))
fastfood_modified3

# A tibble: 515 × 16
   rownames restaurant item         calories cal_fat total_fat sat_fat trans_fat
      <dbl> <chr>      <chr>           <dbl>   <dbl>     <dbl>   <dbl>     <dbl>
 1        1 Mcdonalds  Artisan Gri…      380      60         7       2       0  
 2        2 Mcdonalds  Single Baco…      840     410        45      17       1.5
 3        3 Mcdonalds  Double Baco…     1130     600        67      27       3  
 4        4 Mcdonalds  Grilled Bac…      750     280        31      10       0.5
 5        5 Mcdonalds  Crispy Baco…      920     410        45      12       0.5
 6        6 Mcdonalds  Big Mac           540     250        28      10       1  
 7        7 Mcdonalds  Cheeseburger      300     100        12       5       0.5
 8        8 Mcdonalds  Classic Chi…      510     210        24       4       0  
 9        9 Mcdonalds  Double Chee…      430     190        21      11       1  
10       10 Mcdonalds  Double Quar…      770     400        45      21       2.5
# ℹ 505 more rows
# ℹ 8 more variables: cholesterol <dbl>, sodium <dbl>, total_carb <dbl>,
#   fiber <dbl>, sugar <dbl>, protein <dbl>, calcium <dbl>, salad <chr>
