A1 Math Anxiety Dataset – Swetha_Blog
…
Rows: 599 Columns: 6
── Column specification ────────────────────────────────────────────────────────
Delimiter: ";"
chr (2): Gender, Grade
dbl (4): Age, AMAS, RCMAS, Arith

ℹ Use `spec()` to retrieve the full column specification for this data.
ℹ Specify the column types or set `show_col_types = FALSE` to quiet this message.

meth

# A tibble: 599 × 6
     age gender grade      amas rcmas arith
   <dbl> <chr>  <chr>     <dbl> <dbl> <dbl>
 1  138. Boy    Secondary     9    20     6
 2  141. Boy    Secondary    18     8     6
 3  138. Girl   Secondary    23    26     5
 4  143. Girl   Secondary    19    18     7
 5  136. Boy    Secondary    23    20     1
 6  135  Girl   Secondary    27    33     1
 7  134. Boy    Secondary    22    23     4
 8  139. Boy    Secondary    17    11     7
 9  132. Girl   Secondary    28    32     2
10  135. Boy    Secondary    20    30     6
# ℹ 589 more rows
…
